{
  "description" : "Stock_DB",
  "draft" : false,
  "name" : "Stock_DB",
  "packageName" : "com.stocktracker.stock_db",
  "tables" : [ {
    "catalog" : "Stock_DB",
    "columns" : [ {
      "columnValue" : {
        "type" : "user-defined",
        "insertable" : true,
        "updatable" : true,
        "defaultValue" : null
      },
      "fieldName" : "sid",
      "foreignKey" : false,
      "generatorType" : "identity",
      "generatorValue" : null,
      "javaType" : "integer",
      "length" : 255,
      "name" : "SID",
      "nullable" : false,
      "oldName" : "SID",
      "partOfAnyRelation" : false,
      "partOfForeignKey" : false,
      "partOfPrimaryKey" : true,
      "partOfUniqueKey" : true,
      "precision" : 10,
      "primaryKey" : true,
      "scale" : 0,
      "sqlType" : "number",
      "unique" : true
    }, {
      "columnValue" : {
        "type" : "user-defined",
        "insertable" : true,
        "updatable" : true,
        "defaultValue" : "0"
      },
      "fieldName" : "brokerCommission",
      "foreignKey" : false,
      "generatorType" : "assigned",
      "generatorValue" : null,
      "javaType" : "float",
      "length" : 255,
      "name" : "BrokerCommission",
      "nullable" : true,
      "oldName" : "BrokerCommission",
      "partOfAnyRelation" : false,
      "partOfForeignKey" : false,
      "partOfPrimaryKey" : false,
      "partOfUniqueKey" : false,
      "precision" : 12,
      "primaryKey" : false,
      "scale" : 4,
      "sqlType" : "number",
      "unique" : false
    }, {
      "columnValue" : {
        "type" : "user-defined",
        "insertable" : true,
        "updatable" : true,
        "defaultValue" : "1"
      },
      "fieldName" : "category",
      "foreignKey" : false,
      "generatorType" : "assigned",
      "generatorValue" : null,
      "javaType" : "integer",
      "length" : 255,
      "name" : "category",
      "nullable" : true,
      "oldName" : "category",
      "partOfAnyRelation" : false,
      "partOfForeignKey" : false,
      "partOfPrimaryKey" : false,
      "partOfUniqueKey" : false,
      "precision" : 10,
      "primaryKey" : false,
      "scale" : 0,
      "sqlType" : "number",
      "unique" : false
    }, {
      "columnValue" : {
        "type" : "user-defined",
        "insertable" : true,
        "updatable" : true,
        "defaultValue" : null
      },
      "fieldName" : "exchange",
      "foreignKey" : false,
      "generatorType" : "assigned",
      "generatorValue" : null,
      "javaType" : "string",
      "length" : 255,
      "name" : "exchange",
      "nullable" : true,
      "oldName" : "exchange",
      "partOfAnyRelation" : false,
      "partOfForeignKey" : false,
      "partOfPrimaryKey" : false,
      "partOfUniqueKey" : false,
      "precision" : 19,
      "primaryKey" : false,
      "scale" : 0,
      "sqlType" : "string",
      "unique" : false
    }, {
      "columnValue" : {
        "type" : "user-defined",
        "insertable" : true,
        "updatable" : true,
        "defaultValue" : null
      },
      "fieldName" : "name",
      "foreignKey" : false,
      "generatorType" : "assigned",
      "generatorValue" : null,
      "javaType" : "string",
      "length" : 255,
      "name" : "name",
      "nullable" : true,
      "oldName" : "name",
      "partOfAnyRelation" : false,
      "partOfForeignKey" : false,
      "partOfPrimaryKey" : false,
      "partOfUniqueKey" : false,
      "precision" : 19,
      "primaryKey" : false,
      "scale" : 0,
      "sqlType" : "string",
      "unique" : false
    }, {
      "columnValue" : {
        "type" : "user-defined",
        "insertable" : true,
        "updatable" : true,
        "defaultValue" : "0"
      },
      "fieldName" : "shareQty",
      "foreignKey" : false,
      "generatorType" : "assigned",
      "generatorValue" : null,
      "javaType" : "integer",
      "length" : 255,
      "name" : "ShareQty",
      "nullable" : true,
      "oldName" : "ShareQty",
      "partOfAnyRelation" : false,
      "partOfForeignKey" : false,
      "partOfPrimaryKey" : false,
      "partOfUniqueKey" : false,
      "precision" : 10,
      "primaryKey" : false,
      "scale" : 0,
      "sqlType" : "number",
      "unique" : false
    }, {
      "columnValue" : {
        "type" : "user-defined",
        "insertable" : true,
        "updatable" : true,
        "defaultValue" : "0"
      },
      "fieldName" : "shareValuePurchase",
      "foreignKey" : false,
      "generatorType" : "assigned",
      "generatorValue" : null,
      "javaType" : "float",
      "length" : 255,
      "name" : "ShareValuePurchase",
      "nullable" : true,
      "oldName" : "ShareValuePurchase",
      "partOfAnyRelation" : false,
      "partOfForeignKey" : false,
      "partOfPrimaryKey" : false,
      "partOfUniqueKey" : false,
      "precision" : 12,
      "primaryKey" : false,
      "scale" : 4,
      "sqlType" : "number",
      "unique" : false
    }, {
      "columnValue" : {
        "type" : "user-defined",
        "insertable" : true,
        "updatable" : true,
        "defaultValue" : null
      },
      "fieldName" : "symbol",
      "foreignKey" : false,
      "generatorType" : "assigned",
      "generatorValue" : null,
      "javaType" : "string",
      "length" : 255,
      "name" : "symbol",
      "nullable" : true,
      "oldName" : "symbol",
      "partOfAnyRelation" : false,
      "partOfForeignKey" : false,
      "partOfPrimaryKey" : false,
      "partOfUniqueKey" : false,
      "precision" : 19,
      "primaryKey" : false,
      "scale" : 0,
      "sqlType" : "string",
      "unique" : false
    }, {
      "columnValue" : {
        "type" : "user-defined",
        "insertable" : true,
        "updatable" : true,
        "defaultValue" : null
      },
      "fieldName" : "tenantId",
      "foreignKey" : false,
      "generatorType" : "assigned",
      "generatorValue" : null,
      "javaType" : "string",
      "length" : 255,
      "name" : "tenantID",
      "nullable" : true,
      "oldName" : "tenantID",
      "partOfAnyRelation" : false,
      "partOfForeignKey" : false,
      "partOfPrimaryKey" : false,
      "partOfUniqueKey" : false,
      "precision" : 19,
      "primaryKey" : false,
      "scale" : 0,
      "sqlType" : "string",
      "unique" : false
    } ],
    "constraints" : [ ],
    "entityName" : "MyStocks",
    "fullyQualifiedName" : "com.stocktracker.stock_db.MyStocks",
    "name" : "MyStocks",
    "oldName" : "MyStocks",
    "primaryKey" : {
      "columns" : [ "SID" ],
      "composite" : false,
      "generator" : {
        "generatorType" : "identity",
        "generatorValue" : null
      },
      "name" : "PRIMARY",
      "virtual" : false
    },
    "relations" : [ ],
    "schema" : null,
    "type" : "TABLE"
  }, {
    "catalog" : "Stock_DB",
    "columns" : [ {
      "columnValue" : {
        "type" : "user-defined",
        "insertable" : true,
        "updatable" : true,
        "defaultValue" : null
      },
      "fieldName" : "id",
      "foreignKey" : false,
      "generatorType" : "identity",
      "generatorValue" : null,
      "javaType" : "integer",
      "length" : 255,
      "name" : "ID",
      "nullable" : false,
      "oldName" : "ID",
      "partOfAnyRelation" : false,
      "partOfForeignKey" : false,
      "partOfPrimaryKey" : true,
      "partOfUniqueKey" : true,
      "precision" : 10,
      "primaryKey" : true,
      "scale" : 0,
      "sqlType" : "number",
      "unique" : true
    }, {
      "columnValue" : {
        "type" : "user-defined",
        "insertable" : true,
        "updatable" : true,
        "defaultValue" : null
      },
      "fieldName" : "deviceuuid",
      "foreignKey" : false,
      "generatorType" : "assigned",
      "generatorValue" : null,
      "javaType" : "string",
      "length" : 255,
      "name" : "DEVICEUUID",
      "nullable" : true,
      "oldName" : "DEVICEUUID",
      "partOfAnyRelation" : false,
      "partOfForeignKey" : false,
      "partOfPrimaryKey" : false,
      "partOfUniqueKey" : false,
      "precision" : 19,
      "primaryKey" : false,
      "scale" : 0,
      "sqlType" : "string",
      "unique" : false
    }, {
      "columnValue" : {
        "type" : "user-defined",
        "insertable" : true,
        "updatable" : true,
        "defaultValue" : null
      },
      "fieldName" : "tenantid",
      "foreignKey" : false,
      "generatorType" : "assigned",
      "generatorValue" : null,
      "javaType" : "string",
      "length" : 255,
      "name" : "TENANTID",
      "nullable" : true,
      "oldName" : "TENANTID",
      "partOfAnyRelation" : false,
      "partOfForeignKey" : false,
      "partOfPrimaryKey" : false,
      "partOfUniqueKey" : false,
      "precision" : 19,
      "primaryKey" : false,
      "scale" : 0,
      "sqlType" : "string",
      "unique" : false
    } ],
    "constraints" : [ ],
    "entityName" : "TenantDevice",
    "fullyQualifiedName" : "com.stocktracker.stock_db.TenantDevice",
    "name" : "Tenant_Device",
    "oldName" : "Tenant_Device",
    "primaryKey" : {
      "columns" : [ "ID" ],
      "composite" : false,
      "generator" : {
        "generatorType" : "identity",
        "generatorValue" : null
      },
      "name" : "PRIMARY",
      "virtual" : false
    },
    "relations" : [ ],
    "schema" : null,
    "type" : "TABLE"
  }, {
    "catalog" : "Stock_DB",
    "columns" : [ {
      "columnValue" : {
        "type" : "user-defined",
        "insertable" : true,
        "updatable" : true,
        "defaultValue" : null
      },
      "fieldName" : "sid",
      "foreignKey" : false,
      "generatorType" : "identity",
      "generatorValue" : null,
      "javaType" : "integer",
      "length" : 255,
      "name" : "Sid",
      "nullable" : false,
      "oldName" : "Sid",
      "partOfAnyRelation" : false,
      "partOfForeignKey" : false,
      "partOfPrimaryKey" : true,
      "partOfUniqueKey" : true,
      "precision" : 10,
      "primaryKey" : true,
      "scale" : 0,
      "sqlType" : "number",
      "unique" : true
    }, {
      "columnValue" : {
        "type" : "user-defined",
        "insertable" : true,
        "updatable" : true,
        "defaultValue" : null
      },
      "fieldName" : "industry",
      "foreignKey" : false,
      "generatorType" : "assigned",
      "generatorValue" : null,
      "javaType" : "string",
      "length" : 62,
      "name" : "Industry",
      "nullable" : true,
      "oldName" : "Industry",
      "partOfAnyRelation" : false,
      "partOfForeignKey" : false,
      "partOfPrimaryKey" : false,
      "partOfUniqueKey" : false,
      "precision" : 19,
      "primaryKey" : false,
      "scale" : 0,
      "sqlType" : "string",
      "unique" : false
    }, {
      "columnValue" : {
        "type" : "user-defined",
        "insertable" : true,
        "updatable" : true,
        "defaultValue" : null
      },
      "fieldName" : "ipqyear",
      "foreignKey" : false,
      "generatorType" : "assigned",
      "generatorValue" : null,
      "javaType" : "string",
      "length" : 7,
      "name" : "IPQyear",
      "nullable" : true,
      "oldName" : "IPQyear",
      "partOfAnyRelation" : false,
      "partOfForeignKey" : false,
      "partOfPrimaryKey" : false,
      "partOfUniqueKey" : false,
      "precision" : 19,
      "primaryKey" : false,
      "scale" : 0,
      "sqlType" : "string",
      "unique" : false
    }, {
      "columnValue" : {
        "type" : "user-defined",
        "insertable" : true,
        "updatable" : true,
        "defaultValue" : null
      },
      "fieldName" : "lastSale",
      "foreignKey" : false,
      "generatorType" : "assigned",
      "generatorValue" : null,
      "javaType" : "string",
      "length" : 8,
      "name" : "LastSale",
      "nullable" : true,
      "oldName" : "LastSale",
      "partOfAnyRelation" : false,
      "partOfForeignKey" : false,
      "partOfPrimaryKey" : false,
      "partOfUniqueKey" : false,
      "precision" : 19,
      "primaryKey" : false,
      "scale" : 0,
      "sqlType" : "string",
      "unique" : false
    }, {
      "columnValue" : {
        "type" : "user-defined",
        "insertable" : true,
        "updatable" : true,
        "defaultValue" : null
      },
      "fieldName" : "marketCap",
      "foreignKey" : false,
      "generatorType" : "assigned",
      "generatorValue" : null,
      "javaType" : "string",
      "length" : 9,
      "name" : "MarketCap",
      "nullable" : true,
      "oldName" : "MarketCap",
      "partOfAnyRelation" : false,
      "partOfForeignKey" : false,
      "partOfPrimaryKey" : false,
      "partOfUniqueKey" : false,
      "precision" : 19,
      "primaryKey" : false,
      "scale" : 0,
      "sqlType" : "string",
      "unique" : false
    }, {
      "columnValue" : {
        "type" : "user-defined",
        "insertable" : true,
        "updatable" : true,
        "defaultValue" : null
      },
      "fieldName" : "name",
      "foreignKey" : false,
      "generatorType" : "assigned",
      "generatorValue" : null,
      "javaType" : "string",
      "length" : 62,
      "name" : "Name",
      "nullable" : true,
      "oldName" : "Name",
      "partOfAnyRelation" : false,
      "partOfForeignKey" : false,
      "partOfPrimaryKey" : false,
      "partOfUniqueKey" : false,
      "precision" : 19,
      "primaryKey" : false,
      "scale" : 0,
      "sqlType" : "string",
      "unique" : false
    }, {
      "columnValue" : {
        "type" : "user-defined",
        "insertable" : true,
        "updatable" : true,
        "defaultValue" : null
      },
      "fieldName" : "sector",
      "foreignKey" : false,
      "generatorType" : "assigned",
      "generatorValue" : null,
      "javaType" : "string",
      "length" : 21,
      "name" : "Sector",
      "nullable" : true,
      "oldName" : "Sector",
      "partOfAnyRelation" : false,
      "partOfForeignKey" : false,
      "partOfPrimaryKey" : false,
      "partOfUniqueKey" : false,
      "precision" : 19,
      "primaryKey" : false,
      "scale" : 0,
      "sqlType" : "string",
      "unique" : false
    }, {
      "columnValue" : {
        "type" : "user-defined",
        "insertable" : true,
        "updatable" : true,
        "defaultValue" : null
      },
      "fieldName" : "stockExchange",
      "foreignKey" : false,
      "generatorType" : "assigned",
      "generatorValue" : null,
      "javaType" : "string",
      "length" : 20,
      "name" : "StockExchange",
      "nullable" : true,
      "oldName" : "StockExchange",
      "partOfAnyRelation" : false,
      "partOfForeignKey" : false,
      "partOfPrimaryKey" : false,
      "partOfUniqueKey" : false,
      "precision" : 19,
      "primaryKey" : false,
      "scale" : 0,
      "sqlType" : "string",
      "unique" : false
    }, {
      "columnValue" : {
        "type" : "user-defined",
        "insertable" : true,
        "updatable" : true,
        "defaultValue" : null
      },
      "fieldName" : "symbol",
      "foreignKey" : false,
      "generatorType" : "assigned",
      "generatorValue" : null,
      "javaType" : "string",
      "length" : 14,
      "name" : "Symbol",
      "nullable" : true,
      "oldName" : "Symbol",
      "partOfAnyRelation" : false,
      "partOfForeignKey" : false,
      "partOfPrimaryKey" : false,
      "partOfUniqueKey" : false,
      "precision" : 19,
      "primaryKey" : false,
      "scale" : 0,
      "sqlType" : "string",
      "unique" : false
    } ],
    "constraints" : [ ],
    "entityName" : "StockData",
    "fullyQualifiedName" : "com.stocktracker.stock_db.StockData",
    "name" : "StockData",
    "oldName" : "StockData",
    "primaryKey" : {
      "columns" : [ "Sid" ],
      "composite" : false,
      "generator" : {
        "generatorType" : "identity",
        "generatorValue" : null
      },
      "name" : "PRIMARY",
      "virtual" : false
    },
    "relations" : [ ],
    "schema" : null,
    "type" : "TABLE"
  } ]
}